id,title,summary,link
202205155408,My Handcrafted Site,How and why I made my site ,https://www.pixouls.xyz/blog/2022-04-20_handcrafted-site.html
202207261054,iCloud Authentication Error,Using Lantern to work around an iCloud for Windows Error,https://www.pixouls.xyz/blog/2022-07-25_iCloud_authentication_error.html
202211275943,iPhone Konami Code,Forcing my iPhone back on,https://pixouls.xyz/blog/2022-11-27_iPhone_Konami_Code.html
202211270020,Text Editor,Looking for a new Text Editor,https://pixouls.xyz/blog/2022-11-27_Text_Editor.html
202311302721,Unwrapping my Spotify Wrapped for 2023,"The 2023 Wrapped dropped a day earlier than I expected. I thought I'd spend some time going through my results, explaining why I think they are the way they are, and providing some recommendations along the way.",https://pixouls.xyz/blog/2023-11-30_Unwrapping_My_Wrapped_2023.html
